…
dplyr::select(pts, water_district, wdid, structure_type, water_source, gnis_id, appropriation_date)
#> Simple feature collection with 802 features and 6 fields
#> Geometry type: POINT
#> Dimension:     XY
#> Bounding box:  xmin: -105.6933 ymin: 39.87131 xmax: -105.0106 ymax: 40.14638
#> Geodetic CRS:  WGS 84
#> # A tibble: 802 × 7
#>    water_district wdid    structure_type water_source gnis_id appropriation_date
#>             <int> <chr>   <chr>          <chr>        <chr>   <chr>             
#>  1              6 0600501 Ditch          BOULDER CRE… 178354  1860-10-01 00:00:…
#>  2              6 0600501 Ditch          BOULDER CRE… 178354  1904-11-04 00:00:…
#>  3              6 0600501 Ditch          BOULDER CRE… 178354  1922-11-29 00:00:…
#>  4              6 0600501 Ditch          BOULDER CRE… 178354  1929-12-31 00:00:…
#>  5              6 0600501 Ditch          BOULDER CRE… 178354  1935-11-30 00:00:…
#>  6              6 0600502 Ditch          BOULDER CRE… 178354  1922-11-10 00:00:…
#>  7              6 0600503 Ditch          BOULDER CRE… 178354  1922-11-10 00:00:…
#>  8              6 0600504 Ditch          BOULDER CRE… 178354  1922-11-10 00:00:…
#>  9              6 0600505 Ditch          BOULDER CRE… 178354  1922-11-10 00:00:…
#> 10              6 0600506 Ditch          BOULDER CRE… 178354  1922-11-10 00:00:…
#> # ℹ 792 more rows
#> # ℹ 1 more variable: geometry <POINT [°]>
```
…
